Title,Slug,Tags,,
"Ant, Giant",ant-giant,insect,,
Antelope,antelope,beast,,
"Ape, Carnivorous",ape-carnivorous,beast,,
Assassin Vine,assassin-vine,plant,,
Basilisk,basilisk,monstrosity,,
"Bat (and Bat, Giant)",bat-and-bat-giant,beast,flying,
"Bear, Black",bear-black,beast,,
"Bear, Cave",bear-cave,beast,,
"Bear, Grizzly (or Brown)",bear-grizzly-or-brown,beast,,
"Bear, Polar",bear-polar,beast,,
Bear,bear,beast,,
"Bee, Giant",bee-giant,flying,insect,
"Beetle, Giant Bombardier",beetle-giant-bombardier,insect,,
"Beetle, Giant Fire",beetle-giant-fire,insect,,
"Beetle, Giant Tiger",beetle-giant-tiger,insect,,
Black Pudding*,black-pudding,ooze,,
Blink Dog,blink-dog,fey,,
Blood Rose,blood-rose,plant,,
Boar,boar,beast,,
Bugbear,bugbear,goblinoid,humanoid,
"Caecilia, Giant",caecilia-giant,amphibian,beast,
"Cave Locust, Giant",cave-locust-giant,insect,,
Caveman,caveman,humanoid,,
Centaur,centaur,humanoid,,
"Centipede, Giant",centipede-giant,insect,,
Cheetah,cheetah,beast,,
Chimera,chimera,monstrosity,,
Cockatrice,cockatrice,monstrosity,,
"Crab, Giant",crab-giant,amphibian,beast,
Crocodile,crocodile,amphibian,beast,
"Dinosaur, Deinonychus",dinosaur-deinonychus,beast,,
"Dinosaur, Pterodactyl (and Pteranodon)",dinosaur-pterodactyl-and-pteranodon,beast,flying,
"Dinosaur, Stegosaurus",dinosaur-stegosaurus,beast,,
"Dinosaur, Triceratops",dinosaur-triceratops,beast,,
"Dinosaur, Tyrannosaurus Rex",dinosaur-tyrannosaurus-rex,beast,,
Displacer,displacer,monstrosity,,
Djinni*,djinni,elemental,flying,
Dog,dog,beast,,
Doppleganger,doppleganger,monstrosity,shapechanger,
"Dragon, Black",dragon-black,dragon,flying,
"Dragon, Blue",dragon-blue,dragon,flying,
"Dragon, Gold",dragon-gold,dragon,flying,
"Dragon, Green",dragon-green,dragon,flying,
"Dragon, Red",dragon-red,dragon,flying,
"Dragon, Sea",dragon-sea,amphibian,dragon,flying
Dragon Turtle,dragon-turtle,amphibian,dragon,
"Dragon, White",dragon-white,dragon,flying,
Dragon,dragon,dragon,flying,
Dryad,dryad,fey,,
"Eagle, Giant",eagle-giant,beast,flying,
Efreeti*,efreeti,elemental,flying,
"Elemental, Air*",elemental-air,elemental,flying,
"Elemental, Earth*",elemental-earth,elemental,,
"Elemental, Fire*",elemental-fire,elemental,flying,
"Elemental, Water*",elemental-water,elemental,amphibian,
Elemental*,elemental,elemental,,
Elephant,elephant,beast,,
"Fish, Giant Barracuda",fish-giant-barracuda,aquatic,beast,
"Fish, Giant Bass",fish-giant-bass,aquatic,beast,
"Fish, Giant Catfish",fish-giant-catfish,aquatic,beast,
"Fish, Giant Piranha",fish-giant-piranha,aquatic,beast,
"Fly, Giant",fly-giant,flying,insect,
"Frog, Giant (and Toad, Giant)",frog-giant-and-toad-giant,amphibian,beast,
Gargoyle*,gargoyle,monstrosity,,
Gelatinous Cube,gelatinous-cube,ooze,,
Ghast,ghast,undead,,
Ghost*,ghost,undead,,
Ghoul,ghoul,undead,,
"Giant, Cloud",giant-cloud,giant,,
"Giant, Cyclops",giant-cyclops,giant,,
"Giant, Fire",giant-fire,giant,,
"Giant, Frost",giant-frost,giant,,
"Giant, Hill",giant-hill,giant,,
"Giant, Stone",giant-stone,giant,,
"Giant, Storm",giant-storm,giant,,
Gnoll,gnoll,humanoid,,
Gnome,gnome,humanoid,,
Goblin,goblin,goblinoid,humanoid,
"Golem, Amber*",golem-amber,construct,,
"Golem, Bone*",golem-bone,construct,,
"Golem, Bronze*",golem-bronze,construct,,
"Golem, Clay*",golem-clay,construct,,
"Golem, Flesh*",golem-flesh,construct,,
"Golem, Iron*",golem-iron,construct,,
"Golem, Stone*",golem-stone,construct,,
"Golem, Wood*",golem-wood,construct,,
Golem*,golem,construct,,
Gorgon,gorgon,monstrosity,,
Gray Ooze,gray-ooze,ooze,,
Green Slime,green-slime,ooze,,
Griffon,griffon,monstrosity,flying,
Hangman Tree,hangman-tree,plant,,
Harpy,harpy,monstrosity,flying,
Hawk,hawk,beast,flying,
Hellhound,hellhound,fiend,,
Hippogriff,hippogriff,monstrosity,flying,
Hobgoblin,hobgoblin,goblinoid,humanoid,
Hydra,hydra,monstrosity,,
Hyena,hyena,beast,,
Hyenodon,hyenodon,beast,,
Insect Swarm,insect-swarm,insect,,
Invisible Stalker,invisible-stalker,elemental,,
Jaguar,jaguar,beast,,
Kobold,kobold,humanoid,,
"Leech, Giant",leech-giant,aquatic,beast,
Lion,lion,beast,,
"Living Statue, Crystal",living-statue-crystal,construct,,
"Living Statue, Iron",living-statue-iron,construct,,
"Living Statue, Stone",living-statue-stone,construct,,
Living Statue,living-statue,construct,,
"Lizard, Giant Draco",lizard-giant-draco,beast,flying,
"Lizard, Giant Gecko",lizard-giant-gecko,beast,,
"Lizard, Giant Horned Chameleon",lizard-giant-horned-chameleon,beast,,
"Lizard, Giant Tuatara",lizard-giant-tuatara,beast,,
Lizard Man,lizard-man,humanoid,,
"Lycanthrope, Werebear*",lycanthrope-werebear,humanoid,shapechanger,
"Lycanthrope, Wereboar*",lycanthrope-wereboar,humanoid,shapechanger,
"Lycanthrope, Wererat*",lycanthrope-wererat,humanoid,shapechanger,
"Lycanthrope, Weretiger*",lycanthrope-weretiger,humanoid,shapechanger,
"Lycanthrope, Werewolf*",lycanthrope-werewolf,humanoid,shapechanger,
Lycanthrope*,lycanthrope,humanoid,shapechanger,
Manticore,manticore,monstrosity,flying,
Mastodon,mastodon,beast,,
Medusa,medusa,monstrosity,,
Mermaid,mermaid,aquatic,humanoid,
Minotaur,minotaur,monstrosity,,
Mountain Lion,mountain-lion,beast,,
Mummy*,mummy,undead,,
Nixie,nixie,fey,amphibian,
Ochre Jelly*,ochre-jelly,ooze,,
"Octopus, Giant",octopus-giant,aquatic,beast,
Ogre,ogre,giant,,
Orc,orc,humanoid,,
Owlbear,owlbear,monstrosity,,
Pegasus,pegasus,monstrosity,,
Pixie,pixie,fey,flying,humanoid
Purple Worm,purple-worm,monstrosity,,
Rat,rat,beast,,
"Rhagodessa, Giant",rhagodessa-giant,insect,,
Rhinoceros,rhinoceros,beast,,
Roc,roc,flying,beast,
Rock Baboon,rock-baboon,beast,,
Rot Grub,rot-grub,insect,,
Rust Monster*,rust-monster,monstrosity,,
Sabre-Tooth Cat,sabre-tooth-cat,beast,,
Salamander*,salamander,elemental,,
"Scorpion, Giant",scorpion-giant,insect,,
Sea Serpent,sea-serpent,aquatic,beast,
Shadow*,shadow,undead,,
"Shark, Bull",shark-bull,aquatic,beast,
"Shark, Great White",shark-great-white,aquatic,beast,
"Shark, Mako",shark-mako,aquatic,beast,
"Shrew, Giant",shrew-giant,beast,,
Shrieker,shrieker,plant,,
Skeleton,skeleton,undead,,
"Snake, Giant Rattlesnake",snake-giant-rattlesnake,beast,,
"Snake, Pit Viper",snake-pit-viper,beast,,
"Snake, Python",snake-python,beast,,
"Snake, Sea",snake-sea,aquatic,beast,
"Snake, Spitting Cobra",snake-spitting-cobra,beast,,
Spectre*,spectre,undead,,
"Spider, Giant Black Widow",spider-giant-black-widow,insect,,
"Spider, Giant Crab",spider-giant-crab,insect,,
"Spider, Giant Tarantula",spider-giant-tarantula,insect,,
Sprite,sprite,fey,,
"Squid, Giant",squid-giant,aquatic,beast,
Stirge,stirge,flying,beast,
Tentacle Worm,tentacle-worm,monstrosity,,
Tiger,tiger,beast,,
Titanothere,titanothere,beast,,
Treant,treant,plant,,
Troglodyte,troglodyte,humanoid,,
Troll,troll,giant,,
Unicorn (and Alicorn),unicorn-and-alicorn,monstrosity,,
Urgoblin,urgoblin,humanoid,goblinoid,
Vampire*,vampire,undead,,
"Water Termite, Giant",water-termite-giant,aquatic,insect,
"Weasel, Giant (or Ferret, Giant)",weasel-giant-or-ferret-giant,beast,,
"Whale, Killer",whale-killer,aquatic,beast,
"Whale, Narwhal",whale-narwhal,aquatic,beast,
"Whale, Sperm",whale-sperm,aquatic,beast,
Wight*,wight,undead,,
Wolf,wolf,beast,,
Wraith*,wraith,undead,,
Wyvern,wyvern,dragon,,
Yellow Mold,yellow-mold,plant,,
Zombie,zombie,undead,,
